Tutorial: Data Cleansing and the Tidyverse — Data explorations
…
	65.43.91.70.4setosashortsetosa-0.4433333-1.165809150short

Like with unite(), you can specify the character you want separate() to split. For example, splitting at “ “ instead of at the default “_” for the First, Last name example. See ?separate for more info.

group_by(): Implicitly group data#

In the filtering example in section 4.3, we saw how to subset the data.frame separately for different species, and then to calculate the summaries. This is inefficient and also creates two separate data.frames. While you can join them manually afterwards, there is a much easier way with the group_by command.

When you pass a data.frame to a group_by command, you can specify names of variables, by which to split the data.frame. For example, if we specify the Species and PetalType variables in the group_by command, the data.frame will be implicitly split into 4 data.frames - one for each combination of species and petal type.  E.g.:

dat %>% 
    group_by(Species, PetalType) %>%
    print()

# A tibble: 150 × 11
# Groups:   Species, PetalType [4]
   Sepal.Length Sepal.…¹ Petal…² Petal…³ Speci…⁴ Petal…⁵ Species cente…⁶ PetLe…⁷
          <dbl>    <dbl>   <dbl>   <dbl> <chr>   <chr>   <fct>     <dbl>   <dbl>
 1          5.1      3.5     1.4     0.2 setosa  short   setosa   -0.743   -1.34
 2          4.9      3       1.4     0.2 setosa  short   setosa   -0.943   -1.34
 3          4.7      3.2     1.3     0.2 setosa  short   setosa   -1.14    -1.39
 4          4.6      3.1     1.5     0.2 setosa  short   setosa   -1.24    -1.28
 5          5        3.6     1.4     0.2 setosa  short   setosa   -0.843   -1.34
 6          5.4      3.9     1.7     0.4 setosa  short   setosa   -0.443   -1.17
 7          4.6      3.4     1.4     0.3 setosa  short   setosa   -1.24    -1.34
 8          5        3.4     1.5     0.2 setosa  short   setosa   -0.843   -1.28
 9          4.4      2.9     1.4     0.2 setosa  short   setosa   -1.44    -1.34
10          4.9      3.1     1.5     0.1 setosa  short   setosa   -0.943   -1.28
# … with 140 more rows, 2 more variables: n_flowers <int>, PetalType <chr>, and
#   abbreviated variable names ¹​Sepal.Width, ²​Petal.Length, ³​Petal.Width,
#   ⁴​Species1, ⁵​PetalType1, ⁶​centered_SepLen, ⁷​PetLen_zscores
…
